…
   line text                                                                 
  <dbl> <chr>                                                                
1     1 "Artificial intelligence (AI) is intelligenceâ€”perceiving, synthesi~
> tidy_text <- text_df %>%
+   unnest_tokens(word, text)
> data(stop_words)
> stop_words <- rbind(stop_words,de)
Error in rep(xi, length.out = nvar) : 
  attempt to replicate an object of type 'closure'
> tidy_text <- tidy_text %>%
+   anti_join(stop_words)
Joining with `by = join_by(word)`
> tidy_text %>%
+   count(word, sort = TRUE)
# A tibble: 2,232 x 2
   word             n
   <chr>        <int>
 1 ai             140
 2 intelligence    86
 3 artificial      64
 4 learning        46
 5 machine         37
 6 human           34
 7 main            34
 8 networks        28
 9 knowledge       25
10 research        25
# i 2,222 more rows
# i Use `print(n = ...)` to see more rows
> de <- data.frame("thy","OLD_WORDS")
> names(de) <- c("word","lexicon")
> stop_words <- rbind(stop_words,de)
> tidy_text <- tidy_text %>%
+   anti_join(stop_words)
Joining with `by = join_by(word)`
> tidy_text %>%
+   count(word, sort = TRUE)
# A tibble: 2,232 x 2
   word             n
   <chr>        <int>
 1 ai             140
 2 intelligence    86
 3 artificial      64
 4 learning        46
 5 machine         37
 6 human           34
 7 main            34
 8 networks        28
 9 knowledge       25
10 research        25
# i 2,222 more rows
# i Use `print(n = ...)` to see more rows
> text_bigrams <- text_df %>%
+   unnest_tokens(bigram, text, token = "ngrams", n = 2)
> text_bigrams
# A tibble: 8,951 x 2
    line bigram                   
   <dbl> <chr>                    
 1     1 artificial intelligence  
 2     1 intelligence ai          
 3     1 ai is                    
 4     1 is intelligenceâ         
 5     1 intelligenceâ perceiving 
 6     1 perceiving synthesizing  
 7     1 synthesizing and         
 8     1 and inferring            
 9     1 inferring informationâ   
10     1 informationâ demonstrated
# i 8,941 more rows
# i Use `print(n = ...)` to see more rows
> text_bigrams %>%
+   count(bigram, sort = TRUE)
# A tibble: 7,136 x 2
   bigram                      n
   <chr>                   <int>
 1 artificial intelligence    41
 2 in the                     40
 3 of the                     38
 4 such as                    37
 5 main articles              20
 6 and the                    19
 7 neural networks            19
 8 to the                     19
 9 as the                     18
10 can be                     18
# i 7,126 more rows
# i Use `print(n = ...)` to see more rows
…
Następujący obiekt został zakryty z ‘package:igraph’:

    crossing

Warning message:
pakiet ‘tidyr’ został zbudowany w wersji R 4.1.3 
> bigrams_separated <- text_bigrams %>%
+   separate(bigram, c("word1", "word2"), sep = " ")
> bigrams_filtered <- bigrams_separated %>%
+   filter(!word1 %in% stop_words$word) %>%
+   filter(!word2 %in% stop_words$word)
> bigram_counts <- bigrams_filtered %>%
+   count(word1, word2, sort = TRUE)
> bigram_counts
# A tibble: 2,182 x 3
   word1      word2            n
   <chr>      <chr>        <int>
 1 artificial intelligence    41
 2 main       articles        20
 3 neural     networks        19
 4 ai         research        14
 5 machine    learning        13
 6 main       article         12
 7 deep       learning        10
 8 symbolic   ai               9
 9 ai         researchers      7
10 natural    language         7
# i 2,172 more rows
# i Use `print(n = ...)` to see more rows
> bigram_counts <- bigrams_filtered %>%
+   count(word1, word2, sort = TRUE)
> bigram_counts
# A tibble: 2,182 x 3
   word1      word2            n
   <chr>      <chr>        <int>
 1 artificial intelligence    41
 2 main       articles        20
 3 neural     networks        19
 4 ai         research        14
 5 machine    learning        13
 6 main       article         12
 7 deep       learning        10
 8 symbolic   ai               9
 9 ai         researchers      7
10 natural    language         7
# i 2,172 more rows
# i Use `print(n = ...)` to see more rows
> bigrams_united <- bigrams_filtered %>%
+   unite(bigram, word1, word2, sep = " ")
> bigrams_united
# A tibble: 2,535 x 2
    line bigram                   
   <dbl> <chr>                    
 1     1 artificial intelligence  
 2     1 intelligence ai          
 3     1 intelligenceâ perceiving 
 4     1 perceiving synthesizing  
 5     1 inferring informationâ   
 6     1 informationâ demonstrated
 7     1 intelligence displayed   
 8     1 include speech           
 9     1 speech recognition       
10     1 recognition computer     
# i 2,525 more rows
# i Use `print(n = ...)` to see more rows
…
